<?xml version="1.0" standalone="no"?>
<!DOCTYPE svg PUBLIC "-//W3C//DTD SVG 20010904//EN"
 "http://www.w3.org/TR/2001/REC-SVG-20010904/DTD/svg10.dtd">
<svg version="1.0" xmlns="http://www.w3.org/2000/svg"
 width="84.000000pt" height="44.000000pt" viewBox="0 0 84.000000 44.000000"
 preserveAspectRatio="xMidYMid meet">

<g transform="translate(0.000000,44.000000) scale(0.100000,-0.100000)"
fill="#000000" stroke="none">
<path d="M133 379 c-21 -30 -60 -84 -86 -120 l-47 -67 0 -91 c0 -84 1 -91 20
-91 18 0 20 7 21 73 l0 72 62 84 c35 47 67 86 72 88 6 2 16 -6 23 -17 11 -18
8 -27 -23 -73 -33 -49 -35 -56 -35 -139 0 -81 2 -88 20 -88 18 0 20 7 20 69
l0 68 68 94 c59 81 73 94 100 97 18 2 32 6 32 9 0 9 -55 83 -62 83 -4 0 -22
-21 -39 -47 l-32 -47 -16 24 c-9 14 -25 35 -37 49 l-21 24 -40 -54z"/>
<path d="M540 127 c0 -7 -9 -18 -21 -25 -30 -19 -24 -86 9 -90 21 -3 22 0 22
62 0 36 -2 66 -5 66 -3 0 -5 -6 -5 -13z m-4 -84 c-6 -14 -9 -15 -16 -4 -11 19
-1 46 13 32 5 -5 7 -18 3 -28z"/>
<path d="M270 70 c0 -57 1 -60 24 -60 30 0 35 14 29 73 -5 41 -8 47 -29 47
-23 0 -24 -4 -24 -60z m34 19 c-3 -5 -10 -7 -15 -3 -5 3 -7 10 -3 15 3 5 10 7
15 3 5 -3 7 -10 3 -15z m6 -37 c0 -13 -12 -22 -22 -16 -10 6 -1 24 13 24 5 0
9 -4 9 -8z"/>
<path d="M572 70 c1 -44 3 -52 5 -26 3 29 7 36 14 25 15 -25 10 12 -6 41 -13
23 -14 21 -13 -40z"/>
<path d="M607 83 c-3 -27 -1 -55 4 -63 5 -10 8 7 9 48 0 34 -2 62 -4 62 -2 0
-6 -21 -9 -47z"/>
<path d="M341 53 c1 -43 2 -45 9 -18 4 17 11 38 15 48 5 12 2 17 -9 17 -13 0
-16 -10 -15 -47z"/>
<path d="M380 90 c0 -5 8 -10 18 -10 16 -1 16 -1 0 -14 -25 -19 -24 -56 2 -56
17 0 20 7 20 45 0 38 -3 45 -20 45 -11 0 -20 -4 -20 -10z m30 -50 c0 -5 -4
-10 -10 -10 -5 0 -10 5 -10 10 0 6 5 10 10 10 6 0 10 -4 10 -10z"/>
<path d="M441 53 c2 -33 3 -39 6 -18 7 46 23 55 23 12 0 -20 5 -37 11 -37 6 0
9 17 7 43 -2 35 -7 43 -25 45 -21 3 -23 0 -22 -45z"/>
<path d="M640 91 c0 -6 5 -10 11 -8 6 1 14 -4 16 -10 3 -7 -2 -13 -11 -13 -10
0 -16 -9 -16 -25 0 -19 5 -25 21 -25 18 0 20 5 17 42 -2 31 -8 44 -20 46 -10
2 -18 -1 -18 -7z m30 -50 c0 -6 -4 -13 -10 -16 -5 -3 -10 1 -10 9 0 9 5 16 10
16 6 0 10 -4 10 -9z"/>
<path d="M702 53 c1 -44 2 -45 5 -10 2 20 8 37 13 37 5 0 11 -17 13 -37 l4
-38 1 38 c1 25 7 37 17 37 10 0 15 -11 16 -37 1 -26 3 -30 6 -14 3 12 2 34 -1
47 -5 20 -13 24 -41 24 l-35 0 2 -47z"/>
<path d="M797 93 c-9 -8 -9 -46 -1 -67 7 -17 34 -22 34 -6 0 6 -7 10 -15 10
-8 0 -15 5 -15 10 0 6 9 10 20 10 21 0 24 8 14 34 -6 16 -26 21 -37 9z m33
-24 c0 -5 -7 -9 -15 -9 -15 0 -20 12 -9 23 8 8 24 -1 24 -14z"/>
</g>
</svg>
